Sequence	1yjp_1	1yjp_2	2kib_1	2kib_2	2m5n_2	2m5n_3	2m5n_4	2okz_a	2ol9	2omm_1	2omm_2	2omp	2omq	2on9	2ona	2onv_a	2onw	2y2a	2y3j	2y3k_1	2y3k_2	2y3k_3	2y3l_1	2y3l_2	2y3l_3	2y29	3dg1_a	3dg1_b	3dgj_1	3dgj_2	3fpo	3fth_1	3fth_2	3ftk_1	3ftk_2	3ftl_a_1	3ftl_a_2	3ftl_b_1	3ftl_b_2	3ftr_a	3ftr_b	3fva_a	3fva_b	3hyd_a_1	3hyd_a_2	3hyd_b_1	3hyd_b_2	3loz	3nhc	3nhd	3nve	3ow9	3ppd_a	3ppd_b	3pzz	3q2x_a	3q2x_b	3sgs	4nin_1	4nin_2	4nio_a_1	4nio_a_2	4nio_b_2	4nip_a_1	4nip_a_2	4nip_b_1	4nip_b_2	4np8	4r0p_a	4r0p_b	4r0u_a_1	4r0u_a_2	4r0u_b_1	4r0u_b_2	4r0w_a_1	4r0w_a_2	4r0w_b_2	4rik_a_2	4rik_a_3	4rik_a_4	4rik_b_1	4rik_b_2	4rik_b_3	4ril_a_2	4ril_a_3	4ril_a_4	4ril_b_3	4ril_b_4	4ril_b_5	4rp6_1	4rp6_2	4rp7_a	4rp7_b	4tut	4uby	4ubz	4w5l_1	4w5l_2	4w5m_1	4w5m_2	4w5p_1	4w5p_2	4w5y_1	4w67_1	4w71_1	4w71_2	4wbu	4wbv	4xfo	4znn_a_3	4znn_a_4	4znn_a_5	4znn_b_3	4znn_b_4	4znn_b_5	5e5v_1	5e5v_2	5e5x	5e5z	5e5c	6cb9_a	6cb9_b	6cew	5n9i	6cfh_4	5vos_a_3	5vos_a_4	5vos_a_5	5vos_b_5	5vos_b_6	5w52_5	5whp	5wia	5wiq_1	5wiq_2	5wkb	5wkd_a_1	5wkd_a_2	5wkd_b_1	5wkd_b_2
KLELKA	27.3437	33.8647	0.113333	1.57998	28.6503	37.1706	54.6043	161.199	8.47517	68.0543	36.3964	-4.62524	-0.65234	12.6024	26.5608	87.6648	98.9235	-18.5669	58.2807	49.2563	45.9641	26.1415	42.9131	31.7001	38.8587	-8.68353	138.605	48.46	142.352	158.377	33.7829	-7.51358	-7.81716	103.238	38.5536	27.0467	99.9154	75.3795	59.2641	93.8848	32.794	-21.3045	46.8044	-6.00695	14.9043	16.3215	-32.1812	8.01742	12.4172	73.0518	16.3825	3.58715	169.724	124.39	67.1127	170.973	2.98305	42.9565	90.1933	4.37686	-9.08023	28.2062	132.027	116.596	37.3116	-11.7099	15.7141	0.7017	44.5662	-6.35172	86.4799	143.067	298.264	136.987	131.807	84.2203	13.3796	38.1096	137.511	39.0501	-16.5887	25.3734	-20.2222	-7.89979	27.2391	-20.1439	59.0682	185.599	62.7338	2.48162	4.24482	64.5816	57.139	98.1038	110.004	151.598	65.4479	41.4701	61.4946	20.9159	105.599	36.4416	63.3884	33.268	29.4878	12.5538	26.665	26.7087	20.3416	71.9548	76.9142	102.697	33.4844	55.0016	8.28593	69.4128	36.841	4.8979	8.81462	-1.60597	46.2298	10.3856	22.0948	47.907	6.6858	34.0149	125.207	66.905	23.0651	-8.59799	10.1558	63.4108	121.673	157.955	141.323	98.721	155.787	134.298	-16.1291	38.433	
LELKAA	72.032	-11.73	14.6058	13.7795	24.6838	21.4033	57.8845	177.192	10.8246	118.092	2.98782	-7.42578	5.76481	1.76193	15.9545	56.9009	36.175	1.34969	55.5407	38.887	45.4199	29.219	41.2972	22.8223	36.7964	23.2193	192.103	37.6997	157.286	141.04	25.591	7.50614	0.894229	68.5657	102.898	103.52	61.3308	51.5161	85.2404	148.032	4.59968	15.4087	-4.62509	5.74339	-5.26854	-23.2158	13.4585	-11.9097	12.3579	78.646	9.91758	9.28407	268.075	128.229	64.9827	60.7984	39.2071	58.2785	66.6258	23.455	15.977	16.1161	224.196	37.4556	135.926	18.693	9.28759	3.06628	1.65562	14.2295	69.2342	158.654	162.227	215.635	65.1145	160.563	-15.7136	60.8776	38.0242	103.07	12.2947	-11.2989	20.9783	14.3287	-6.30962	25.3338	88.1603	53.9116	143.27	11.1023	9.76971	24.1323	61.4947	112.646	114.452	158.083	61.6695	51.1305	64.3529	23.278	108.607	45.3151	61.1097	31.2934	39.0589	15.2219	11.9179	18.4711	12.9429	57.3861	114.962	24.9067	55.9622	48.6305	19.1425	54.5288	54.1222	8.29065	14.9947	14.4569	-13.2138	76.4222	24.0695	59.8115	7.8169	45.2395	37.6947	112.419	2.08082	21.1481	20.6033	70.1216	151.054	134.909	157.176	80.5521	67.532	145.09	47.2289	-18.8147	
ELKAAS	62.647	34.2663	20.962	19.4695	37.6953	35.743	61.2515	135.151	20.5197	98.8372	46.6724	20.3291	30.5751	32.4054	21.286	64.5118	32.8379	6.81877	54.7577	30.5971	50.5955	28.9852	37.3655	41.9104	44.7373	24.3561	145.409	75.1739	156.755	59.6722	27.4414	18.5524	8.78649	56.3502	62.0453	60.1444	50.5655	63.5854	59.2273	136.843	42.7149	19.3838	35.9261	8.89468	22.4034	30.9975	15.433	23.9633	28.6724	78.5654	30.2775	15.2717	83.3599	86.8411	79.3889	106.603	30.5357	59.0972	67.6991	22.1592	15.5674	35.2309	89.2171	135.352	31.2412	15.5243	26.7221	22.8042	25.4899	24.1999	80.7654	176.025	167.976	76.7947	153.289	57.6776	36.8725	30.7992	90.97	42.5467	25.2634	40.4069	7.54895	34.9804	38.6096	2.91739	45.4697	116.508	59.8018	26.8543	22.2212	84.0079	75.659	98.1871	115.105	147.687	79.5373	49.236	71.4312	29.4145	93.976	43.1185	64.2739	38.6435	43.9403	15.6511	29.2783	40.4356	31.1752	67.686	126.145	56.2327	79.2594	74.8344	23.1913	38.9354	46.1561	25.0724	27.1431	18.9947	39.3417	0.20739	19.9504	71.7276	19.3338	36.7569	71.6315	39.8545	35.7283	4.05852	29.4503	72.3296	70.627	98.0615	141.208	89.7644	66.2931	55.9127	1.92858	57.5738	
LKAASQ	87.3272	29.9189	29.2344	31.6476	42.0557	38.6434	56.6355	91.7757	29.6205	132.884	40.0884	16.4493	25.2307	22.1836	23.8575	80.4038	44.4002	23.089	74.184	54.7513	36.6021	55.2599	43.4726	19.0735	47.4891	40.0794	228.981	98.2112	69.1165	85.2633	40.874	25.6697	22.6315	65.4529	83.9974	85.4067	54.996	45.5493	87.2058	141.923	48.1986	27.1253	38.0005	26.6575	26.0218	20.9733	40.923	14.9682	24.2395	114.091	31.1413	27.9685	267.945	169.325	93.3122	47.5625	18.9776	74.9676	101.235	45.3725	33.056	37.0644	136.863	31.3046	87.9994	31.6162	32.7417	26.6041	30.0564	32.0434	97.8772	157.853	161.144	130.565	41.9451	99.546	16.0793	43.328	38.6495	82.2058	30.4931	30.2892	42.7047	33.6258	35.5315	43.3066	62.2605	53.8933	111.39	35.0366	33.6559	86.5052	122.924	110.454	118.95	168.111	77.3583	63.037	76.8188	36.0322	102.557	35.7892	76.7039	34.2269	51.0309	24.4928	28.082	40.9231	26.51	62.3214	101.259	61.3655	60.8973	71.4359	44.0699	48.971	36.6988	38.9212	32.4657	34.799	30.3525	47.5892	25.5506	69.8493	23.7979	45.5902	44.7254	63.1404	40.3722	37.8112	33.4764	54.3758	120.239	116.813	99.197	81.5463	58.6557	73.3763	39.9419	4.84854	
KAASQM	50.019	36.3567	20.1912	31.0753	31.639	21.4694	74.9863	104.154	31.2531	84.443	56.2908	14.237	20.7974	36.1823	15.1161	37.7081	66.2471	21.8978	70.9222	55.8921	43.5593	53.9188	39.404	20.4152	44.6344	46.8437	91.8472	102.245	79.0527	94.3125	16.3131	18.0265	23.6171	79.1705	55.6619	34.6573	66.7539	67.979	85.9283	82.8159	45.3958	18.537	27.3964	25.5194	24.7382	37.0219	19.2699	25.3317	14.4768	96.9486	40.6046	31.4482	173.826	136.87	91.3997	68.9554	17.0381	59.7271	86.9006	47.1085	23.0737	35.964	67.2726	63.0919	33.4069	27.7888	31.482	33.4521	32.4658	27.6683	80.2184	100.701	164.382	82.5933	70.4655	46.9168	37.4201	41.9059	40.4816	32.7811	27.108	32.6272	31.6083	28.6293	32.8241	33.1629	58.0383	54.2717	48.0235	30.9888	33.0004	86.1319	101.257	92.341	76.69	122.612	57.4523	64.3051	53.2232	42.0983	60.6086	63.35	72.0946	32.4711	45.9909	23.2693	18.3225	63.0425	39.3743	69.5911	66.2413	53.3357	53.6778	67.4927	36.1994	31.6213	37.7019	36.78	42.7637	35.9831	18.851	26.1051	28.9516	68.8687	27.934	56.7932	48.3537	38.2294	32.9153	23.4622	32.2918	49.0967	72.4985	129.228	128.987	77.8066	81.0593	48.7728	30.1522	36.7569	
AASQME	53.1528	26.8054	19.4812	20.3523	70.6114	33.3226	48.809	146.127	40.3976	59.4453	39.9144	20.7361	31.991	41.3625	20.7852	64.3138	86.8315	11.0109	94.6219	63.7078	69.7524	67.4748	48.0528	28.1892	43.8095	22.7412	124.718	110.346	97.8025	161.633	23.2052	15.1917	17.6354	88.079	76.8894	63.8761	91.3447	78.1842	172.888	145.57	46.4712	41.0652	24.5818	31.9164	29.9966	24.9673	37.8793	11.001	19.5985	54.8862	35.2235	19.8143	119.356	86.4662	81.3669	55.4127	70.2267	45.417	100.323	47.3216	32.0785	37.1942	111.703	30.4463	70.1792	31.4128	33.0586	32.1048	38.4704	40.7444	63.604	129.255	176.158	116.665	50.7527	72.6106	36.736	132.736	44.439	33.1901	55.8372	33.0456	31.0149	58.5817	33.7343	35.5916	176.562	57.324	42.9847	44.1152	43.3866	90.7288	18.4069	64.5548	69.9371	104.085	70.1562	43.5143	66.8234	18.2511	54.9116	37.4154	56.5258	24.1638	31.9563	27.0454	24.3544	32.3612	62.2038	80.4064	106.998	29.4095	92.9266	61.546	34.9149	41.8884	28.785	46.6852	43.9567	40.9134	18.3626	27.6841	7.33182	46.2037	10.5304	137.58	65.8403	41.607	35.6982	37.028	35.1606	67.5746	191.084	156.254	136.128	87.639	99.8662	69.1775	21.6793	37.2632	
ASQMEF	28.9803	5.58639	5.16869	9.45659	70.9035	46.3611	32.2991	171.308	16.4483	29.8094	22.0615	2.59635	11.0847	16.5594	46.4119	56.1995	126.602	8.16081	83.8432	64.1888	113.241	55.1284	66.1562	32.3449	47.1099	18.7568	146.636	157.839	134.72	159.452	30.9711	6.11399	12.6758	102.737	60.3733	55.6814	102.22	120.938	230.507	145.017	37.2548	6.71998	27.3941	15.7915	14.67	23.7814	6.77152	12.5183	4.38386	61.9175	30.2716	13.4542	128.55	78.9586	56.1707	114.935	116.196	31.0901	94.7167	43.8414	9.37802	53.1163	139.452	50.2301	73.7784	10.49	34.3144	13.1855	54.9085	13.6142	88.5796	175.145	237.724	104.967	56.2725	76.2087	22.7559	163.107	130.067	29.6683	12.9114	38.2766	21.9542	18.9102	38.718	29.0187	243.735	147.415	37.4361	19.3823	28.1488	70.7531	132.56	90.8962	90.4429	121.588	66.8335	57.0461	64.2766	33.7951	78.2216	32.2794	66.8054	39.8333	36.536	24.3881	11.5123	58.4159	71.0227	94.0563	123.985	42.4348	55.3026	65.9807	11.5989	41.6063	32.9526	35.8073	28.6523	13.6351	28.2002	18.9288	20.5965	42.7033	8.54205	164.134	130.394	49.6826	62.5095	21.526	23.1645	53.2867	325.847	163.283	142.532	86.7161	173.886	83.094	27.6068	-0.503759	
SQMEFS	77.8834	2.35712	8.50119	4.22884	52.448	46.7971	66.4636	178.51	8.04859	85.8514	22.8686	-6.76263	12.6324	11.8823	32.1731	112.121	274.712	-0.980634	106.629	135.741	54.5533	108.025	89.1684	43.7317	55.0926	6.73959	207.199	68.4258	143.849	182.947	49.0778	1.83445	2.41146	100.577	95.3065	88.5065	103.141	195.093	120.328	161.493	8.19213	44.3681	60.5459	3.22967	7.30436	9.78929	34.4786	-6.80856	16.6075	50.93	20.3783	11.7602	188.728	62.7342	88.7391	233.854	67.2557	57.98	72.3714	37.1556	29.6445	34.6599	218.024	67.2448	150.192	21.7778	12.9544	11.6007	94.9312	21.3687	62.3273	164.252	422.545	160.29	66.5373	154.75	10.2651	116.152	156.204	112.778	35.9581	7.32475	17.238	42.3532	12.0457	14.6496	146.446	227.341	156.739	25.2276	21.6261	51.1866	113.892	142.183	134.459	162.855	71.5734	59.0645	44.3626	34.9972	111.723	44.9746	87.3748	60.6489	56.2948	17.3913	23.4218	30.9623	37.4244	58.8929	107.698	90.5243	72.8351	50.7407	26.573	63.7914	47.5953	23.9139	32.9532	48.3577	30.1658	89.3762	36.0313	46.0673	13.6719	99.0504	188.525	91.321	31.4278	43.4481	32.6883	51.6093	178.259	167.411	155.38	79.4096	226.885	146.699	73.6411	34.5951	
QMEFSF	92.6325	35.3399	1.73064	3.01891	61.0385	66.3844	81.1531	238.938	19.9749	133.833	24.3805	-1.95264	39.0506	4.59924	61.8583	84.9155	62.8103	-15.8274	86.5624	44.2265	146.863	53.3317	54.6501	79.0146	38.8416	4.28937	272.71	132.483	167.665	223.568	37.128	-0.857262	-1.46916	104.601	84.5568	82.2131	94.9469	70.9516	331.977	376.13	26.0233	-17.1391	15.0196	-2.46082	11.3657	13.4622	-3.60177	17.8631	22.469	131.949	18.7942	-3.29213	408.034	124.243	83.9056	89.7575	215.231	65.8105	85.8292	4.03043	17.445	63.5963	348.87	106.376	272.692	-7.85106	7.30274	-2.79419	39.4468	-17.1752	71.8251	250.271	176.009	350.125	103.011	260.359	42.0537	368.819	82.6665	76.4688	53.5117	24.194	-8.42634	58.5045	23.257	-9.02392	440.945	112.148	116.403	-4.99125	10.2143	61.018	129.378	89.1327	101.797	138.936	70.5226	43.3384	69.4212	20.5376	89.918	85.3155	90.4163	37.8443	49.2757	48.745	35.9973	82.0879	68.8783	73.7138	259.447	30.161	113.624	58.409	-1.44944	54.7668	44.3208	10.1653	27.0049	0.0242833	24.1638	151.039	30.3179	64.6224	25.7771	344.422	67.1311	140.329	21.5225	15.2431	12.1505	108.514	621.471	195.819	164.853	65.3204	106.589	212.743	131.76	37.5299	
MEFSFT	79.067	24.5175	3.47009	8.75805	38.0004	49.7258	73.6064	197.011	5.18903	100.663	29.0834	-6.93992	8.35825	-3.52258	36.5034	126.43	273.503	3.31081	103.011	84.7059	104.413	82.0029	78.0864	54.7956	61.0346	11.7015	203.679	134.027	227.487	89.6047	81.9973	-5.58759	2.1227	107.842	90.4031	82.591	129.895	223.587	73.0111	173.236	78.6448	36.1435	165.04	8.29177	57.0079	11.3912	7.72791	-24.6778	17.6165	80.4073	18.7361	15.2323	198.892	161.56	92.4698	431.176	39.0853	58.3806	49.6211	34.1731	38.2556	72.7682	133.311	248.293	66.1669	-4.72872	3.13303	-15.3601	112.217	7.65196	156.267	149.832	434.479	110.96	217.356	72.8778	4.3604	19.0472	376.541	76.1827	17.5841	60.8817	9.58844	12.646	62.8244	15.6783	33.4835	443.222	127.544	8.02323	0.323963	24.6714	72.906	151.068	158.092	221.677	93.0357	57.154	72.1392	43.1458	180.637	39.7312	111.328	68.1012	79.4396	16.6275	27.8943	30.2619	27.8357	58.9581	128.376	209.603	49.9275	79.0449	13.4369	64.4895	44.0739	11.3364	12.8678	36.4079	132.64	27.0588	81.4236	47.0322	24.663	12.9121	373.417	46.6045	53.116	18.3504	34.5158	72.7725	77.9729	124.901	205.998	115.366	366.006	83.1413	45.2893	82.5232	
EFSFTM	118.22	15.8096	2.86311	-0.62083	70.204	34.3214	85.187	245.124	0.81253	223.645	14.1745	3.61133	20.0055	-6.58914	24.8542	124.921	55.5037	-6.70734	74.7163	75.8856	79.0591	124.757	76.7165	55.1862	50.4161	16.0731	465.978	84.9939	131.491	238.507	26.5409	-0.537375	-9.20089	89.9284	123.332	199.477	76.2333	42.7932	194.096	382.804	30.7361	10.2414	8.60682	36.3115	-10.35	-0.222892	26.101	25.0956	22.9163	132.886	52.5906	10.5137	511.005	65.7056	133.822	22.0052	118.988	63.288	43.8421	-17.9176	-1.33561	44.5449	510.052	49.4627	444.119	-8.97955	-6.17657	-6.54419	23.1941	1.64029	54.4702	254.778	190.23	448.667	33.9118	446.082	6.47412	250.461	6.64547	263.064	15.879	13.4995	40.5059	27.3321	12.124	44.0595	272.962	18.181	323.28	-18.1967	-0.744683	59.6151	147.41	105.615	168.837	192.333	62.5606	69.3459	51.8767	22.72	180.758	88.6496	98.5988	36.8511	72.1527	48.1905	34.3136	69.1887	2.21048	30.8597	280.871	28.8896	56.6632	45.8095	39.3852	43.5702	50.3219	6.62655	24.7918	13.0525	0.599098	281.268	37.9731	75.745	44.5826	222.283	18.6292	339.741	13.0483	54.5206	6.43708	84.6123	411.181	271.866	120.616	106.385	69.4277	355.642	248.472	26.6208	
FSFTMK	41.6005	62.2042	0.0815899	3.74232	29.7762	52.5862	104.708	239.207	29.0579	84.52	112.689	-10.4359	20.4904	3.53344	64.9881	71.5926	92.0574	-19.2646	65.9498	38.6241	127.728	39.3702	44.7628	81.2298	60.7834	9.573	65.2234	81.1317	227.502	150.412	26.9217	-23.2451	1.92404	74.7429	93.1701	78.2672	86.9623	100.778	118.304	112.592	51.734	-4.63487	65.7084	-9.91046	25.0294	24.3754	-3.03154	5.39383	14.9648	152.711	22.3028	5.66494	243.505	223.775	95.5183	263.349	42.384	48.555	79.0221	17.8275	32.9428	62.9061	90.6888	449.36	21.3683	-11.2105	2.22922	9.74656	15.6948	-8.51799	128.886	126.08	198.469	72.9399	412.343	44.5904	49.6348	49.5936	255.23	4.98309	2.54357	38.5971	3.84568	12.0009	41.7663	6.68351	79.0254	279.163	20.4588	0.527449	-14.1894	53.0749	86.2847	78.4511	91.3561	131.817	66.8519	48.0602	67.2027	19.399	54.0509	59.2938	79.1971	39.8235	44.2382	22.4062	47.8537	97.4771	53.1444	50.0336	71.5457	134.598	64.8009	34.1058	11.4405	43.6849	67.2177	-1.87618	14.1623	10.2101	78.7726	14.467	29.6602	62.9897	23.3806	72.0774	195.41	10.5644	10.4214	14.4442	0.0891797	75.7077	104.773	175.494	278.482	90.5641	187.992	72.8312	12.2175	228.609	
SFTMKL	55.3391	-10.8799	-25.2829	-7.23697	34.0128	21.8686	47.2253	222.268	-15.0066	73.903	-4.93063	-20.5699	2.90053	-0.0758343	22.4218	97.9248	110.534	-13.788	54.3144	96.046	11.5245	97.5702	66.0508	8.96848	47.1813	-6.09983	422.151	82.7688	138.514	121.89	13.4709	-31.7521	-16.5483	95.522	100.077	135.914	88.8242	89.2522	103.222	219.174	26.3921	-0.175389	-2.68031	12.1304	-19.7951	-0.419787	-4.22504	1.75769	3.78796	65.2193	19.975	-5.22651	290.836	52.6067	70.257	75.8495	22.9827	30.8728	51.3493	-6.00436	-16.2562	3.76502	373.384	4.90655	231.049	-30.0958	-15.1045	-18.0787	22.2848	-25.4489	45.3739	194.614	310.712	247.392	35.1377	233.391	-9.16929	57.2073	46.429	193.987	-11.317	1.17604	10.9371	-12.1927	-1.40016	32.2023	78.1483	85.7479	238.28	-22.7429	-10.18	53.7569	111.59	102.066	155.52	194.054	47.282	58.477	21.3174	31.456	163.01	29.4389	49.3503	12.806	23.711	14.1229	11.5196	24.9044	-13.1703	61.2636	121.642	23.305	42.6115	39.7926	-16.9244	46.508	31.0801	-0.858247	13.3564	-5.9158	-6.44409	121.969	33.281	35.5494	25.1394	66.9104	72.476	161.545	10.2729	11.9053	6.71878	59.0451	191.506	153.072	156.359	94.7422	114.044	196.701	96.7272	-13.3443	
